[
  "CEO",
  "CTO",
  "Chief Technology Officer",
  "VP of Engineering",
  "VP Engineering",
  "Associate Engineer",
  "Engineering Fellow",
  "Director of Engineering",
  "MD of Engineering",
  "Chief Architect",
  "Systems Architect",
  "Systems Developer",
  "Engineering Manager",
  "Dev Manager",
  "Technical Lead",
  "Software Architect",
  "Principal Software Engineer",
  "Principal Software Developer",
  "Delivery Manager",
  "Project Manager",
  "Engineering Manager",
  "Engineering Project Manager",
  "Team Lead",
  "Senior Software Engineer",
  "Senior Software Developer",
  "Software Engineer",
  "Software Developer",
  "Midlevel Software Engineer",
  "Midlevel Software Developer",
  "Professional Software Developer",
  "Junior Software Engineer",
  "Junior Software Developer",
  "Senior Fullstack Developer",
  "Fullstack Developer",
  "Full-stack Developer",
  "Fullstack Engineer",
  "Intern Software Developer",
  "Intern Software Engineer",
  "UX Designer",
  "User Experience Designer",
  "Product Designer",
  "Happiness Engineer"
]